﻿Commune;Nombre d'offres;Loyer moyen annoncé         en € courant;Loyer moyen annoncé au m² en € courant
Bettembourg;30;2.594;18,02;;
Contern;31;3.041;17,72
Hesperange;44;3.361;16,63
Kaerjeng;31;2.672;13,51
Kopstal;31;3.760;16,77
Luxembourg;310;4.128;20,06
Mamer;30;3.187;16,36
Strassen;49;3.680;17,56