﻿Commune;Nombre d'offres;Loyer moyen annoncé          en € courant;Loyer moyen annoncé au m² en € courant
Beaufort;9;*;*
Bech;0;*;*
Beckerich;10;*;*
Berdorf;14;*;*
Bertrange;284;1.578;26,01
Bettembourg;74;1.215;23,40
Bettendorf;17;*;*
Betzdorf;18;*;*
Bissen;21;*;*
Biwer;2;*;*
Boulaide;2;*;*
Bourscheid;7;*;*
Bous;7;*;*
Clervaux;83;1.025;12,86
Colmar-Berg;17;*;*
Consdorf;2;*;*
Contern;51;1.493;19,90
Dalheim;9;*;*
Diekirch;76;1.114;15,83
Differdange;282;1.135;20,39
Dippach;38;1.378;19,99
Dudelange;209;1.288;22,95
Echternach;38;1.078;16,37
Ell;4;*;*
Erpeldange;2;*;*
Esch-sur-Alzette;724;1.121;24,43
Esch-sur-Sûre;20;*;*
Ettelbruck;84;1.288;16,41
Feulen;9;*;*
Fischbach;5;*;*
Flaxweiler;4;*;*
Frisange;76;1.414;16,82
Garnich;2;*;*
Goesdorf;5;*;*
Grevenmacher;47;1.247;16,80
Grosbous;4;*;*
Habscht;47;1.307;16,35
Heffingen;3;*;*
Helperknapp;22;*;*
Hesperange;446;1.709;21,53
Junglinster;134;1.689;20,14
Kaerjeng;91;1.334;16,79
Kayl;71;1.215;20,75
Kehlen;55;1.509;17,49
Kiischpelt;1;*;*
Koerich;11;*;*
Kopstal;64;1.700;21,68
Lac de la Haute-Sûre;6;*;*
Larochette;12;*;*
Lenningen;14;*;*
Leudelange;64;1.279;29,68
Lintgen;23;*;*
Lorentzweiler;69;1.512;23,29
Luxembourg;7.408;1.772;31,94
Mamer;204;1.645;23,54
Manternach;13;*;*
Mersch;116;1.304;18,06
Mertert;23;*;*
Mertzig;12;*;*
Mondercange;57;1.343;23,26
Mondorf-les-Bains;102;1.226;18,66
Niederanven;38;1.385;27,01
Nommern;0;*;*
Parc Hosingen;9;*;*
Petange;280;1.190;18,05
Préizerdaul;6;*;*
Putscheid;2;*;*
Rambrouch;20;*;*
Reckange-sur-Mess;12;*;*
Redange-sur-Attert;39;1.265;13,78
Reisdorf;2;*;*
Remich;42;1.083;17,18
Roeser;105;1.316;21,59
Rosport-Mompach;2;*;*
Rumelange;16;*;*
Saeul;4;*;*
Sandweiler;50;1.686;22,87
Sanem;130;1.360;19,32
Schengen;26;*;*
Schieren;4;*;*
Schifflange;144;1.197;21,40
Schuttrange;58;1.863;22,48
Stadtbredimus;13;*;*
Steinfort;78;1.282;18,24
Steinsel;37;1.582;18,68
Strassen;396;1.706;24,48
Tandel;0;*;*
Troisvierges;15;*;*
Useldange;20;*;*
Vallée de l'Ernz;8;*;*
Vianden;13;*;*
Vichten;7;*;*
Wahl;0;*;*
Waldbillig;1;*;*
Waldbredimus;0;*;*
Walferdange;202;1.621;25,73
Weiler-la-Tour;8;*;*
Weiswampach;49;1.076;13,81
Wiltz;59;991;13,91
Wincrange;18;*;*
Winseler;26;*;*
Wormeldange;26;*;*