﻿Commune;Nombre de ventes;Prix moyen au m²;Fourchette de prix au m²;Nombre de VEFA;Prix moyen au m²;Fourchette de prix au m²
Beaufort;7;*;*;3;*;*
Bech;2;*;*;0;*;*
Beckerich;12;4.426 €;3307 € - 6015 €;11;4.815 €;3562 € - 6692 €
Berdorf;2;*;*;42;5.753 €;3838 € - 6892 €
Bertrange;44;7.479 €;5436 € - 10381 €;66;8.675 €;7315 € - 10346 €
Bettembourg;59;5.155 €;3798 € - 6609 €;48;6.044 €;4783 € - 7318 €
Bettendorf;5;*;*;10;4.815 €;4148 € - 5385 €
Betzdorf;6;*;*;0;*;*
Bissen;12;4.805 €;3086 € - 5822 €;4;*;*
Biwer;1;*;*;2;*;*
Boulaide;5;*;*;0;*;*
Bourscheid;1;*;*;0;*;*
Bous;5;*;*;0;*;*
Clervaux;31;3.703 €;3003 € - 4775 €;28;3.875 €;3191 € - 4411 €
Colmar-Berg;27;4.534 €;3716 € - 5470 €;0;*;*
Consdorf;0;*;*;4;*;*
Contern;14;5.807 €;4974 € - 7429 €;12;6.015 €;5687 € - 6490 €
Dalheim;9;*;*;0;*;*
Diekirch;33;4.696 €;3373 € - 6209 €;46;5.589 €;5010 € - 6410 €
Differdange;292;4.608 €;3106 € - 5911 €;118;5.120 €;4178 € - 6193 €
Dippach;22;5.131 €;4270 € - 5925 €;3;*;*
Dudelange;155;4.726 €;3070 € - 6617 €;46;5.535 €;4743 € - 6381 €
Echternach;19;4.605 €;3202 € - 6383 €;13;4.898 €;4194 € - 5497 €
Ell;8;*;*;27;4.348 €;3353 € - 5241 €
Erpeldange-sur-Sûre;7;*;*;1;*;*
Esch-sur-Alzette;343;4.639 €;3089 € - 6221 €;58;5.969 €;4393 € - 7407 €
Esch-sur-Sûre;8;*;*;28;4.136 €;3236 € - 5574 €
Ettelbruck;55;4.618 €;2971 € - 6598 €;44;5.411 €;5033 € - 6263 €
Feulen;3;*;*;7;*;*
Fischbach;3;*;*;0;*;*
Flaxweiler;0;*;*;0;*;*
Frisange;36;5.358 €;3650 € - 6923 €;9;*;*
Garnich;3;*;*;0;*;*
Goesdorf;7;*;*;3;*;*
Grevenmacher;37;4.843 €;3856 € - 6049 €;6;*;*
Grosbous;4;*;*;0;*;*
Habscht;38;4.573 €;3303 € - 5835 €;38;5.043 €;4280 € - 6292 €
Heffingen;2;*;*;1;*;*
Helperknapp;16;4.484 €;2800 € - 5342 €;30;5.340 €;4334 € - 5838 €
Hesperange;109;6.474 €;4866 € - 8338 €;25;7.655 €;6560 € - 8865 €
Junglinster;33;5.827 €;4821 € - 6994 €;22;6.086 €;5461 € - 6517 €
Käerjeng;51;4.794 €;3396 € - 6258 €;15;5.726 €;4883 € - 6798 €
Kayl;85;5.018 €;3631 € - 6415 €;32;5.613 €;4060 € - 7415 €
Kehlen;23;5.437 €;3154 € - 6966 €;7;*;*
Kiischpelt;2;*;*;0;*;*
Koerich;4;*;*;0;*;*
Kopstal;9;*;*;9;*;*
Lac de la Haute-Sûre;3;*;*;10;3.953 €;3612 € - 4216 €
Larochette;10;4.007 €;3041 € - 4835 €;13;4.700 €;3348 € - 5666 €
Lenningen;4;*;*;0;*;*
Leudelange;30;6.662 €;4972 € - 8114 €;0;*;*
Lintgen;16;4.736 €;2378 € - 7699 €;34;5.922 €;5216 € - 6881 €
Lorentzweiler;17;6.026 €;3442 € - 7345 €;38;6.381 €;4991 € - 7639 €
Luxembourg-Ville;667;8.099 €;5465 € - 11173 €;309;8.846 €;6853 € - 11321 €
Mamer;39;5.704 €;3953 € - 7364 €;35;6.877 €;6125 € - 7795 €
Manternach;1;*;*;0;*;*
Mersch;51;5.331 €;3399 € - 6862 €;36;6.364 €;4965 € - 7574 €
Mertert;22;4.507 €;3117 € - 5650 €;15;5.832 €;3289 € - 6789 €
Mertzig;6;*;*;0;*;*
Mondercange;37;4.912 €;3617 € - 6225 €;24;6.120 €;5215 € - 7172 €
Mondorf-les-Bains;52;5.505 €;4017 € - 7147 €;5;*;*
Niederanven;8;*;*;5;*;*
Nommern;0;*;*;0;*;*
Parc Hosingen;10;3.791 €;2684 € - 5270 €;3;*;*
Petange;166;4.606 €;3269 € - 5982 €;81;4.942 €;4083 € - 6135 €
Preizerdaul;2;*;*;1;*;*
Putscheid;1;*;*;0;*;*
Rambrouch;10;3.343 €;2264 € - 4509 €;1;*;*
Reckange-sur-Mess;8;*;*;1;*;*
Redange;11;4.601 €;3337 € - 5968 €;9;*;*
Reisdorf;2;*;*;0;*;*
Remich;35;4.522 €;2805 € - 6510 €;0;*;*
Roeser;51;6.020 €;4869 € - 7887 €;4;*;*
Rosport-Mompach;4;*;*;0;*;*
Rumelange;22;4.238 €;2750 € - 5285 €;0;*;*
Saeul;6;*;*;0;*;*
Sandweiler;17;6.233 €;4047 € - 8172 €;0;*;*
Sanem;113;4.788 €;3425 € - 6100 €;46;5.628 €;4825 € - 6816 €
Schengen;29;4.453 €;3087 € - 5446 €;14;5.371 €;3937 € - 6544 €
Schieren;3;*;*;40;5.822 €;5201 € - 6877 €
Schifflange;86;5.380 €;4016 € - 6846 €;31;5.478 €;4588 € - 6662 €
Schuttrange;13;5.801 €;4269 € - 7454 €;1;*;*
Stadtbredimus;14;4.878 €;3399 € - 6510 €;0;*;*
Steinfort;25;4.881 €;3459 € - 6064 €;25;6.081 €;5036 € - 7346 €
Steinsel;22;5.940 €;4676 € - 7643 €;20;6.602 €;5042 € - 8586 €
Strassen;54;7.367 €;5107 € - 9749 €;92;8.730 €;7474 € - 9705 €
Tandel;9;*;*;0;*;*
Troisvierges;6;*;*;5;*;*
Useldange;3;*;*;3;*;*
Vallée de l'Ernz;10;4.146 €;2638 € - 5068 €;0;*;*
Vianden;5;*;*;1;*;*
Vichten;7;*;*;3;*;*
Wahl;0;*;*;0;*;*
Waldbillig;4;*;*;1;*;*
Waldbredimus;3;*;*;4;*;*
Walferdange;47;6.362 €;4141 € - 8325 €;17;6.613 €;5610 € - 8296 €
Weiler-la-Tour;4;*;*;1;*;*
Weiswampach;21;4.266 €;2639 € - 5608 €;35;4.095 €;3454 € - 4604 €
Wiltz;52;3.503 €;2578 € - 5384 €;43;4.210 €;3700 € - 5002 €
Wincrange;8;*;*;0;*;*
Winseler;7;*;*;0;*;*
Wormeldange;11;4.120 €;3136 € - 4943 €;0;*;*